[gd_resource type="Resource" script_class="TextConfig" load_steps=2 format=3 uid="uid://2r2vayhtaor0"]

[ext_resource type="Script" path="res://text_config.gd" id="1_vk3n5"]

[resource]
script = ExtResource("1_vk3n5")
text = ["Hace unos años, mi abuela empezó a olvidar.", "Repetía cosas, preguntaba constantemente la hora,
	olvidaba si había comido, o cuándo habíamos llegado.", "Ella se daba cuenta. Se sentía mal por ello."]
text_speed = "fast"
