[gd_resource type="Resource" script_class="TextConfig" load_steps=2 format=3 uid="uid://bnlpdiufl2u7l"]

[ext_resource type="Script" path="res://text_config.gd" id="1_v27hc"]

[resource]
script = ExtResource("1_v27hc")
text = ["Preguntas que hasta hace no tanto habían sido normales,
	ahora se encontraban atrapadas en una espiral."]
text_speed = "fast"
